#
# A fatal error has been detected by the Java Runtime Environment:
#
#  EXCEPTION_ACCESS_VIOLATION (0xc0000005) at pc=0x000000005877d6a2, pid=3864, tid=4128
#
# JRE version: 7.0_10-b18
# Java VM: Java HotSpot(TM) 64-Bit Server VM (23.6-b04 mixed mode windows-amd64 compressed oops)
# Problematic frame:
# V  [jvm.dll+0x35d6a2]
#
# Failed to write core dump. Minidumps are not enabled by default on client versions of Windows
#
# If you would like to submit a bug report, please visit:
#   http://bugreport.sun.com/bugreport/crash.jsp
#

---------------  T H R E A D  ---------------

Current thread (0x0000000007b80000):  VMThread [stack: 0x0000000008690000,0x0000000008790000] [id=4128]

siginfo: ExceptionCode=0xc0000005, reading address 0xffffffffffffffff

Registers:
RAX=0x0000000000000080, RBX=0x00000000dcf37464, RCX=0x0000000058ad4738, RDX=0x0000000000000000
RSP=0x000000000878f750, RBP=0x0000000000000010, RSI=0x00000000d747c400, RDI=0x00000000de4cc2c0
R8 =0x0000000000000080, R9 =0x0200000005af4000, R10=0x0000000000187eb3, R11=0x00000000061facc0
R12=0x000000000000000c, R13=0x0000000000000012, R14=0x0000000007b10a70, R15=0x0000000000000000
RIP=0x000000005877d6a2, EFLAGS=0x0000000000010206

Top of Stack: (sp=0x000000000878f750)
0x000000000878f750:   0000000000000009 0000000000000010
0x000000000878f760:   00000000d747c400 00000000025d0080
0x000000000878f770:   00000000de4cc2c0 000000005850f1cc
0x000000000878f780:   00000000dc27aa94 0000000007b1bb10
0x000000000878f790:   0000000007b1bb10 00000000025d0080
0x000000000878f7a0:   00000000025d0080 000000005877f9ad
0x000000000878f7b0:   00000000075dcf80 0000000007b1bb10
0x000000000878f7c0:   0000000007b1bb10 00000000d747c400
0x000000000878f7d0:   00000000025d3a00 000000005877feed
0x000000000878f7e0:   00000000075dcf80 000000000772f480
0x000000000878f7f0:   000000000d9417d0 000000000d9417d0
0x000000000878f800:   0000000007b1bb10 000000005878051b
0x000000000878f810:   0000000000000001 000000000878f9d0
0x000000000878f820:   0000000007b143b0 0000000007b143b0
0x000000000878f830:   00000000025966f0 00000000001ea5ad
0x000000000878f840:   000000005895b188 0000000000000002 

Instructions: (pc=0x000000005877d6a2)
0x000000005877d682:   48 83 ec 20 4c 8b ca 4c 8b c2 48 81 e2 00 f0 ff
0x000000005877d692:   ff 4c 2b 09 49 c1 e9 0c 49 c1 e1 05 4c 03 49 10
0x000000005877d6a2:   41 8b 49 1c 41 8b 41 18 49 8b 39 81 e1 ff ff ff
0x000000005877d6b2:   07 48 03 c8 48 81 f9 00 02 00 00 75 11 4c 2b c2 


Register to memory mapping:

RAX=0x0000000000000080 is an unknown value
RBX=0x00000000dcf37464 is an oop
[Ljava.lang.Object; 
 - klass: 'java/lang/Object'[]
 - length: 29441964
RCX=0x0000000058ad4738 is an unknown value
RDX=0x0000000000000000 is an unknown value
RSP=0x000000000878f750 is an unknown value
RBP=0x0000000000000010 is an unknown value
RSI=0x00000000d747c400 is an oop
[Ljava.lang.Object; 
 - klass: 'java/lang/Object'[]
 - length: 29441964
RDI=0x00000000de4cc2c0 is an oop
java.awt.event.MouseEvent 
 - klass: 'java/awt/event/MouseEvent'
R8 =0x0000000000000080 is an unknown value
R9 =0x0200000005af4000 is an unknown value
R10=0x0000000000187eb3 is an unknown value
R11=0x00000000061facc0 is an unknown value
R12=0x000000000000000c is an unknown value
R13=0x0000000000000012 is an unknown value
R14=0x0000000007b10a70 is an unknown value
R15=0x0000000000000000 is an unknown value


Stack: [0x0000000008690000,0x0000000008790000],  sp=0x000000000878f750,  free space=1021k
Native frames: (J=compiled Java code, j=interpreted, Vv=VM code, C=native code)
V  [jvm.dll+0x35d6a2]

[error occurred during error reporting (printing native stack), id 0xc0000005]

VM_Operation (0x00000000099ad3e0): ParallelGCFailedAllocation, mode: safepoint, requested by thread 0x0000000007cf5000


---------------  P R O C E S S  ---------------

Java Threads: ( => current thread )
  0x0000000009ca6000 JavaThread "TimerQueue" daemon [_thread_blocked, id=4964, stack(0x000000000d320000,0x000000000d420000)]
  0x0000000009c64800 JavaThread "Swing-Shell" daemon [_thread_blocked, id=4220, stack(0x000000000c250000,0x000000000c350000)]
  0x0000000009be4800 JavaThread "D3D Screen Updater" daemon [_thread_blocked, id=4756, stack(0x000000000b8d0000,0x000000000b9d0000)]
  0x000000000259d800 JavaThread "DestroyJavaVM" [_thread_blocked, id=2212, stack(0x0000000002490000,0x0000000002590000)]
  0x0000000007cf5000 JavaThread "AWT-EventQueue-0" [_thread_blocked, id=4208, stack(0x00000000098b0000,0x00000000099b0000)]
  0x0000000007cf2000 JavaThread "AWT-Windows" daemon [_thread_blocked, id=5008, stack(0x0000000009590000,0x0000000009690000)]
  0x0000000007cde800 JavaThread "AWT-Shutdown" [_thread_blocked, id=4368, stack(0x0000000009490000,0x0000000009590000)]
  0x0000000007cd9000 JavaThread "Java2D Disposer" daemon [_thread_blocked, id=3004, stack(0x0000000009390000,0x0000000009490000)]
  0x0000000007c08800 JavaThread "Service Thread" daemon [_thread_blocked, id=3008, stack(0x0000000008d90000,0x0000000008e90000)]
  0x0000000007bfd000 JavaThread "C2 CompilerThread1" daemon [_thread_blocked, id=68, stack(0x0000000008c90000,0x0000000008d90000)]
  0x0000000007bf8800 JavaThread "C2 CompilerThread0" daemon [_thread_blocked, id=4680, stack(0x0000000008b90000,0x0000000008c90000)]
  0x0000000007bf7000 JavaThread "Attach Listener" daemon [_thread_blocked, id=904, stack(0x0000000008a90000,0x0000000008b90000)]
  0x0000000007bf5800 JavaThread "Signal Dispatcher" daemon [_thread_blocked, id=4820, stack(0x0000000008990000,0x0000000008a90000)]
  0x0000000007b90000 JavaThread "Finalizer" daemon [_thread_blocked, id=3156, stack(0x0000000008890000,0x0000000008990000)]
  0x0000000007b88000 JavaThread "Reference Handler" daemon [_thread_blocked, id=4212, stack(0x0000000008790000,0x0000000008890000)]

Other Threads:
=>0x0000000007b80000 VMThread [stack: 0x0000000008690000,0x0000000008790000] [id=4128]
  0x0000000007c21800 WatcherThread [stack: 0x0000000008e90000,0x0000000008f90000] [id=4740]

VM state:at safepoint (normal execution)

VM Mutex/Monitor currently owned by a thread:  ([mutex/lock_event])
[0x000000000259a4d0] Threads_lock - owner thread: 0x0000000007b80000
[0x000000000259add0] Heap_lock - owner thread: 0x0000000007cf5000

Heap
 PSYoungGen      total 195200K, used 173423K [0x00000000f1560000, 0x0000000100000000, 0x0000000100000000)
  eden space 167552K, 87% used [0x00000000f1560000,0x00000000fa53d898,0x00000000fb900000)
  from space 27648K, 94% used [0x00000000fe500000,0x00000000ffe7e410,0x0000000100000000)
  to   space 36352K, 0% used [0x00000000fb900000,0x00000000fb900000,0x00000000fdc80000)
 ParOldGen       total 300096K, used 282239K [0x00000000d4000000, 0x00000000e6510000, 0x00000000f1560000)
  object space 300096K, 94% used [0x00000000d4000000,0x00000000e539fea8,0x00000000e6510000)
 PSPermGen       total 22464K, used 15691K [0x00000000cee00000, 0x00000000d03f0000, 0x00000000d4000000)
  object space 22464K, 69% used [0x00000000cee00000,0x00000000cfd52d68,0x00000000d03f0000)

Card table byte_map: [0x0000000005790000,0x0000000005920000] byte_map_base: 0x0000000005119000

Polling page: 0x00000000025a0000

Code Cache  [0x00000000026d0000, 0x0000000002940000, 0x00000000056d0000)
 total_blobs=819 nmethods=312 adapters=458 free_code_cache=48003Kb largest_free_block=49112576

Compilation events (10 events):
Event: 85.278 Thread 0x0000000007bfd000  305             java.util.concurrent.locks.AbstractQueuedSynchronizer::compareAndSetWaitStatus (13 bytes)
Event: 85.278 Thread 0x0000000007bfd000 nmethod 305 0x00000000027e2fd0 code [0x00000000027e3100, 0x00000000027e3158]
Event: 86.820 Thread 0x0000000007bf8800  306             java.util.concurrent.locks.ReentrantLock$NonfairSync::tryAcquire (6 bytes)
Event: 86.823 Thread 0x0000000007bf8800 nmethod 306 0x00000000027e2d50 code [0x00000000027e2e80, 0x00000000027e2f38]
Event: 87.793 Thread 0x0000000007bfd000  307             java.util.Arrays::copyOf (47 bytes)
Event: 87.799 Thread 0x0000000007bfd000 nmethod 307 0x00000000027e7c50 code [0x00000000027e7da0, 0x00000000027e80d8]
Event: 87.824 Thread 0x0000000007bfd000  309             java.util.ArrayList$Itr::<init> (26 bytes)
Event: 87.824 Thread 0x0000000007bf8800  308             java.util.ArrayList$Itr::<init> (6 bytes)
Event: 87.825 Thread 0x0000000007bfd000 nmethod 309 0x00000000027e8fd0 code [0x00000000027e9100, 0x00000000027e9178]
Event: 87.825 Thread 0x0000000007bf8800 nmethod 308 0x00000000027e2a50 code [0x00000000027e2b80, 0x00000000027e2bf8]

GC Heap History (10 events):
Event: 51.267 GC heap after
Heap after GC invocations=66 (full 10):
 PSYoungGen      total 221056K, used 3681K [0x00000000f1560000, 0x00000000ffef0000, 0x0000000100000000)
  eden space 203840K, 0% used [0x00000000f1560000,0x00000000f1560000,0x00000000fdc70000)
  from space 17216K, 21% used [0x00000000fee20000,0x00000000ff1b8608,0x00000000ffef0000)
  to   space 17664K, 0% used [0x00000000fdc70000,0x00000000fdc70000,0x00000000fedb0000)
 ParOldGen       total 300096K, used 72949K [0x00000000d4000000, 0x00000000e6510000, 0x00000000f1560000)
  object space 300096K, 24% used [0x00000000d4000000,0x00000000d873d560,0x00000000e6510000)
 PSPermGen       total 22464K, used 14474K [0x00000000cee00000, 0x00000000d03f0000, 0x00000000d4000000)
  object space 22464K, 64% used [0x00000000cee00000,0x00000000cfc229b8,0x00000000d03f0000)
}
Event: 51.799 GC heap before
{Heap before GC invocations=67 (full 10):
 PSYoungGen      total 221056K, used 207521K [0x00000000f1560000, 0x00000000ffef0000, 0x0000000100000000)
  eden space 203840K, 100% used [0x00000000f1560000,0x00000000fdc70000,0x00000000fdc70000)
  from space 17216K, 21% used [0x00000000fee20000,0x00000000ff1b8608,0x00000000ffef0000)
  to   space 17664K, 0% used [0x00000000fdc70000,0x00000000fdc70000,0x00000000fedb0000)
 ParOldGen       total 300096K, used 72949K [0x00000000d4000000, 0x00000000e6510000, 0x00000000f1560000)
  object space 300096K, 24% used [0x00000000d4000000,0x00000000d873d560,0x00000000e6510000)
 PSPermGen       total 22464K, used 14474K [0x00000000cee00000, 0x00000000d03f0000, 0x00000000d4000000)
  object space 22464K, 64% used [0x00000000cee00000,0x00000000cfc229b8,0x00000000d03f0000)
Event: 51.811 GC heap after
Heap after GC invocations=67 (full 10):
 PSYoungGen      total 221184K, used 17286K [0x00000000f1560000, 0x0000000100000000, 0x0000000100000000)
  eden space 203840K, 0% used [0x00000000f1560000,0x00000000f1560000,0x00000000fdc70000)
  from space 17344K, 99% used [0x00000000fdc70000,0x00000000fed518c8,0x00000000fed60000)
  to   space 19072K, 0% used [0x00000000fed60000,0x00000000fed60000,0x0000000100000000)
 ParOldGen       total 300096K, used 72949K [0x00000000d4000000, 0x00000000e6510000, 0x00000000f1560000)
  object space 300096K, 24% used [0x00000000d4000000,0x00000000d873d560,0x00000000e6510000)
 PSPermGen       total 22464K, used 14474K [0x00000000cee00000, 0x00000000d03f0000, 0x00000000d4000000)
  object space 22464K, 64% used [0x00000000cee00000,0x00000000cfc229b8,0x00000000d03f0000)
}
Event: 52.264 GC heap before
{Heap before GC invocations=68 (full 10):
 PSYoungGen      total 221184K, used 221126K [0x00000000f1560000, 0x0000000100000000, 0x0000000100000000)
  eden space 203840K, 100% used [0x00000000f1560000,0x00000000fdc70000,0x00000000fdc70000)
  from space 17344K, 99% used [0x00000000fdc70000,0x00000000fed518c8,0x00000000fed60000)
  to   space 19072K, 0% used [0x00000000fed60000,0x00000000fed60000,0x0000000100000000)
 ParOldGen       total 300096K, used 72949K [0x00000000d4000000, 0x00000000e6510000, 0x00000000f1560000)
  object space 300096K, 24% used [0x00000000d4000000,0x00000000d873d560,0x00000000e6510000)
 PSPermGen       total 22464K, used 14474K [0x00000000cee00000, 0x00000000d03f0000, 0x00000000d4000000)
  object space 22464K, 64% used [0x00000000cee00000,0x00000000cfc22b18,0x00000000d03f0000)
Event: 52.283 GC heap after
Heap after GC invocations=68 (full 10):
 PSYoungGen      total 204032K, used 19071K [0x00000000f1560000, 0x0000000100000000, 0x0000000100000000)
  eden space 184960K, 0% used [0x00000000f1560000,0x00000000f1560000,0x00000000fca00000)
  from space 19072K, 99% used [0x00000000fed60000,0x00000000fffffdc8,0x0000000100000000)
  to   space 27648K, 0% used [0x00000000fca00000,0x00000000fca00000,0x00000000fe500000)
 ParOldGen       total 300096K, used 84011K [0x00000000d4000000, 0x00000000e6510000, 0x00000000f1560000)
  object space 300096K, 27% used [0x00000000d4000000,0x00000000d920ac80,0x00000000e6510000)
 PSPermGen       total 22464K, used 14474K [0x00000000cee00000, 0x00000000d03f0000, 0x00000000d4000000)
  object space 22464K, 64% used [0x00000000cee00000,0x00000000cfc22b18,0x00000000d03f0000)
}
Event: 87.835 GC heap before
{Heap before GC invocations=69 (full 10):
 PSYoungGen      total 204032K, used 202992K [0x00000000f1560000, 0x0000000100000000, 0x0000000100000000)
  eden space 184960K, 99% used [0x00000000f1560000,0x00000000fc8fc570,0x00000000fca00000)
  from space 19072K, 99% used [0x00000000fed60000,0x00000000fffffdc8,0x0000000100000000)
  to   space 27648K, 0% used [0x00000000fca00000,0x00000000fca00000,0x00000000fe500000)
 ParOldGen       total 300096K, used 84011K [0x00000000d4000000, 0x00000000e6510000, 0x00000000f1560000)
  object space 300096K, 27% used [0x00000000d4000000,0x00000000d920ac80,0x00000000e6510000)
 PSPermGen       total 22464K, used 15690K [0x00000000cee00000, 0x00000000d03f0000, 0x00000000d4000000)
  object space 22464K, 69% used [0x00000000cee00000,0x00000000cfd52ad8,0x00000000d03f0000)
Event: 87.865 GC heap after
Heap after GC invocations=69 (full 10):
 PSYoungGen      total 212608K, used 27638K [0x00000000f1560000, 0x0000000100000000, 0x0000000100000000)
  eden space 184960K, 0% used [0x00000000f1560000,0x00000000f1560000,0x00000000fca00000)
  from space 27648K, 99% used [0x00000000fca00000,0x00000000fe4fdad0,0x00000000fe500000)
  to   space 27648K, 0% used [0x00000000fe500000,0x00000000fe500000,0x0000000100000000)
 ParOldGen       total 300096K, used 85959K [0x00000000d4000000, 0x00000000e6510000, 0x00000000f1560000)
  object space 300096K, 28% used [0x00000000d4000000,0x00000000d93f1cb8,0x00000000e6510000)
 PSPermGen       total 22464K, used 15690K [0x00000000cee00000, 0x00000000d03f0000, 0x00000000d4000000)
  object space 22464K, 69% used [0x00000000cee00000,0x00000000cfd52ad8,0x00000000d03f0000)
}
Event: 88.103 GC heap before
{Heap before GC invocations=70 (full 10):
 PSYoungGen      total 212608K, used 192213K [0x00000000f1560000, 0x0000000100000000, 0x0000000100000000)
  eden space 184960K, 88% used [0x00000000f1560000,0x00000000fb617be0,0x00000000fca00000)
  from space 27648K, 99% used [0x00000000fca00000,0x00000000fe4fdad0,0x00000000fe500000)
  to   space 27648K, 0% used [0x00000000fe500000,0x00000000fe500000,0x0000000100000000)
 ParOldGen       total 300096K, used 85959K [0x00000000d4000000, 0x00000000e6510000, 0x00000000f1560000)
  object space 300096K, 28% used [0x00000000d4000000,0x00000000d93f1cb8,0x00000000e6510000)
 PSPermGen       total 22464K, used 15691K [0x00000000cee00000, 0x00000000d03f0000, 0x00000000d4000000)
  object space 22464K, 69% used [0x00000000cee00000,0x00000000cfd52d68,0x00000000d03f0000)
Event: 88.352 GC heap after
Heap after GC invocations=70 (full 10):
 PSYoungGen      total 195200K, used 26105K [0x00000000f1560000, 0x0000000100000000, 0x0000000100000000)
  eden space 167552K, 0% used [0x00000000f1560000,0x00000000f1560000,0x00000000fb900000)
  from space 27648K, 94% used [0x00000000fe500000,0x00000000ffe7e410,0x0000000100000000)
  to   space 36352K, 0% used [0x00000000fb900000,0x00000000fb900000,0x00000000fdc80000)
 ParOldGen       total 300096K, used 167231K [0x00000000d4000000, 0x00000000e6510000, 0x00000000f1560000)
  object space 300096K, 55% used [0x00000000d4000000,0x00000000de34ffe8,0x00000000e6510000)
 PSPermGen       total 22464K, used 15691K [0x00000000cee00000, 0x00000000d03f0000, 0x00000000d4000000)
  object space 22464K, 69% used [0x00000000cee00000,0x00000000cfd52d68,0x00000000d03f0000)
}
Event: 88.725 GC heap before
{Heap before GC invocations=71 (full 11):
 PSYoungGen      total 195200K, used 173423K [0x00000000f1560000, 0x0000000100000000, 0x0000000100000000)
  eden space 167552K, 87% used [0x00000000f1560000,0x00000000fa53d898,0x00000000fb900000)
  from space 27648K, 94% used [0x00000000fe500000,0x00000000ffe7e410,0x0000000100000000)
  to   space 36352K, 0% used [0x00000000fb900000,0x00000000fb900000,0x00000000fdc80000)
 ParOldGen       total 300096K, used 282239K [0x00000000d4000000, 0x00000000e6510000, 0x00000000f1560000)
  object space 300096K, 94% used [0x00000000d4000000,0x00000000e539fea8,0x00000000e6510000)
 PSPermGen       total 22464K, used 15691K [0x00000000cee00000, 0x00000000d03f0000, 0x00000000d4000000)
  object space 22464K, 69% used [0x00000000cee00000,0x00000000cfd52d68,0x00000000d03f0000)

Deoptimization events (10 events):
Event: 0.864 Thread 0x0000000007cf5000 Uncommon trap -34 fr.pc 0x0000000002748b18
Event: 0.864 Thread 0x0000000007cf5000 Uncommon trap -34 fr.pc 0x0000000002748b18
Event: 4.813 Thread 0x0000000007cf5000 Uncommon trap -122 fr.pc 0x0000000002767f20
Event: 30.882 Thread 0x0000000007cf5000 Uncommon trap -83 fr.pc 0x0000000002770b4c
Event: 33.620 Thread 0x0000000007cf5000 Uncommon trap 11 fr.pc 0x000000000278b104
Event: 62.106 Thread 0x0000000007cf5000 Uncommon trap -83 fr.pc 0x0000000002799e24
Event: 62.235 Thread 0x0000000007cf5000 Uncommon trap -34 fr.pc 0x00000000027a72a8
Event: 62.235 Thread 0x0000000007cf5000 Uncommon trap -34 fr.pc 0x00000000027a2b68
Event: 62.252 Thread 0x0000000007cf5000 Uncommon trap -83 fr.pc 0x00000000027a2f30
Event: 70.956 Thread 0x0000000007cf5000 Uncommon trap -34 fr.pc 0x00000000027cc4bc

Internal exceptions (10 events):
Event: 62.087 Thread 0x0000000007cf5000 Threw 0x00000000f704a0b8 at C:\jdk7u2_64p\jdk7u10\hotspot\src\share\vm\prims\jvm.cpp:1166
Event: 62.089 Thread 0x0000000007cf5000 Threw 0x00000000f704bd20 at C:\jdk7u2_64p\jdk7u10\hotspot\src\share\vm\prims\jvm.cpp:1166
Event: 62.090 Thread 0x0000000007cf5000 Threw 0x00000000f704d470 at C:\jdk7u2_64p\jdk7u10\hotspot\src\share\vm\prims\jvm.cpp:1166
Event: 62.091 Thread 0x0000000007cf5000 Threw 0x00000000f704eb98 at C:\jdk7u2_64p\jdk7u10\hotspot\src\share\vm\prims\jvm.cpp:1166
Event: 62.168 Thread 0x0000000007cf5000 Threw 0x00000000f709ff30 at C:\jdk7u2_64p\jdk7u10\hotspot\src\share\vm\prims\jvm.cpp:1166
Event: 64.164 Thread 0x0000000007cf5000 Threw 0x00000000f8a93b50 at C:\jdk7u2_64p\jdk7u10\hotspot\src\share\vm\prims\jvm.cpp:1166
Event: 64.173 Thread 0x0000000007cf5000 Threw 0x00000000f8adb308 at C:\jdk7u2_64p\jdk7u10\hotspot\src\share\vm\prims\jvm.cpp:1166
Event: 64.177 Thread 0x0000000007cf5000 Threw 0x00000000f8ae6ce8 at C:\jdk7u2_64p\jdk7u10\hotspot\src\share\vm\prims\jvm.cpp:1166
Event: 69.713 Thread 0x0000000007cf5000 Threw 0x00000000f8dedfb8 at C:\jdk7u2_64p\jdk7u10\hotspot\src\share\vm\prims\jvm.cpp:1166
Event: 70.889 Thread 0x0000000007cf5000 Threw 0x00000000f8f93090 at C:\jdk7u2_64p\jdk7u10\hotspot\src\share\vm\prims\jvm.cpp:1166

Events (10 events):
Event: 72.025 Thread 0x0000000007bf8800 flushing nmethod 0x000000000278ad50
Event: 74.498 Thread 0x0000000007bfd000 flushing nmethod 0x0000000002799c90
Event: 75.151 Thread 0x0000000007bf8800 flushing nmethod 0x00000000027a1f10
Event: 87.824 loading class 0x0000000007b15910
Event: 87.824 loading class 0x0000000007b15910 done
Event: 87.835 Executing VM operation: ParallelGCFailedAllocation
Event: 87.865 Executing VM operation: ParallelGCFailedAllocation done
Event: 88.103 Executing VM operation: ParallelGCFailedAllocation
Event: 88.352 Executing VM operation: ParallelGCFailedAllocation done
Event: 88.725 Executing VM operation: ParallelGCFailedAllocation


Dynamic libraries:
0x000007f61c120000 - 0x000007f61c153000 	C:\Program Files\Java\jdk1.7.0_10\bin\java.exe
0x000007f96dc50000 - 0x000007f96de0e000 	C:\Windows\SYSTEM32\ntdll.dll
0x000007f96d6d0000 - 0x000007f96d806000 	C:\Windows\system32\KERNEL32.DLL
0x000007f96ad00000 - 0x000007f96adf3000 	C:\Windows\system32\KERNELBASE.dll
0x000007f96d810000 - 0x000007f96d8ee000 	C:\Windows\system32\ADVAPI32.dll
0x000007f96b130000 - 0x000007f96b27c000 	C:\Windows\system32\USER32.dll
0x000007f96a2e0000 - 0x000007f96a549000 	C:\Windows\WinSxS\amd64_microsoft.windows.common-controls_6595b64144ccf1df_6.0.9200.16384_none_418c2a697189c07f\COMCTL32.dll
0x000007f96d8f0000 - 0x000007f96d995000 	C:\Windows\system32\msvcrt.dll
0x000007f96cdd0000 - 0x000007f96ce18000 	C:\Windows\SYSTEM32\sechost.dll
0x000007f96da40000 - 0x000007f96db80000 	C:\Windows\system32\RPCRT4.dll
0x000007f96d480000 - 0x000007f96d5c0000 	C:\Windows\system32\GDI32.dll
0x000007f96ce20000 - 0x000007f96ce59000 	C:\Windows\system32\IMM32.DLL
0x000007f96b420000 - 0x000007f96b534000 	C:\Windows\system32\MSCTF.dll
0x0000000058340000 - 0x0000000058411000 	C:\Program Files\Java\jdk1.7.0_10\jre\bin\msvcr100.dll
0x0000000058420000 - 0x0000000058b3f000 	C:\Program Files\Java\jdk1.7.0_10\jre\bin\server\jvm.dll
0x000007f95f990000 - 0x000007f95f999000 	C:\Windows\SYSTEM32\WSOCK32.dll
0x000007f9667c0000 - 0x000007f9667e0000 	C:\Windows\SYSTEM32\WINMM.dll
0x000007f96d450000 - 0x000007f96d457000 	C:\Windows\system32\PSAPI.DLL
0x000007f96d3f0000 - 0x000007f96d448000 	C:\Windows\system32\WS2_32.dll
0x000007f966780000 - 0x000007f9667b2000 	C:\Windows\SYSTEM32\WINMMBASE.dll
0x000007f96d260000 - 0x000007f96d269000 	C:\Windows\system32\NSI.dll
0x00000000582f0000 - 0x00000000582ff000 	C:\Program Files\Java\jdk1.7.0_10\jre\bin\verify.dll
0x00000000582c0000 - 0x00000000582e8000 	C:\Program Files\Java\jdk1.7.0_10\jre\bin\java.dll
0x00000000582a0000 - 0x00000000582b5000 	C:\Program Files\Java\jdk1.7.0_10\jre\bin\zip.dll
0x00000000580c0000 - 0x0000000058253000 	C:\Program Files\Java\jdk1.7.0_10\jre\bin\awt.dll
0x000007f96db80000 - 0x000007f96dc43000 	C:\Windows\system32\OLEAUT32.dll
0x000007f96b8c0000 - 0x000007f96ba70000 	C:\Windows\system32\combase.dll
0x000007f9643f0000 - 0x000007f96448f000 	C:\Windows\system32\apphelp.dll
0x000007f969130000 - 0x000007f969213000 	C:\Windows\system32\uxtheme.dll
0x000007f968500000 - 0x000007f968521000 	C:\Windows\SYSTEM32\dwmapi.dll
0x000007f96d270000 - 0x000007f96d3ee000 	C:\Windows\system32\ole32.dll
0x000007f96a9c0000 - 0x000007f96a9ca000 	C:\Windows\SYSTEM32\CRYPTBASE.dll
0x000007f96a960000 - 0x000007f96a9bc000 	C:\Windows\SYSTEM32\bcryptPrimitives.dll
0x000007f94cee0000 - 0x000007f94d0e0000 	C:\Windows\system32\d3d9.dll
0x000007f9694f0000 - 0x000007f9694f9000 	C:\Windows\SYSTEM32\VERSION.dll
0x000007f94bda0000 - 0x000007f94ced4000 	C:\Windows\SYSTEM32\nvd3dumx.dll
0x000007f96ab20000 - 0x000007f96ab63000 	C:\Windows\SYSTEM32\powrprof.dll
0x000007f96ba70000 - 0x000007f96cd55000 	C:\Windows\system32\SHELL32.dll
0x000007f96b0d0000 - 0x000007f96b120000 	C:\Windows\system32\SHLWAPI.dll
0x000007f969b80000 - 0x000007f969c16000 	C:\Windows\SYSTEM32\shcore.dll
0x0000000058080000 - 0x00000000580b4000 	C:\Program Files\Java\jdk1.7.0_10\jre\bin\fontmanager.dll
0x0000000058280000 - 0x0000000058299000 	C:\Program Files\Java\jdk1.7.0_10\jre\bin\net.dll
0x000007f96a090000 - 0x000007f96a0ec000 	C:\Windows\system32\mswsock.dll
0x0000000058260000 - 0x0000000058271000 	C:\Program Files\Java\jdk1.7.0_10\jre\bin\nio.dll
0x0000000058030000 - 0x0000000058071000 	C:\Program Files\Java\jdk1.7.0_10\jre\bin\t2k.dll
0x000007f96d9a0000 - 0x000007f96da36000 	C:\Windows\SYSTEM32\clbcatq.dll
0x000007f96ae00000 - 0x000007f96aea4000 	C:\Windows\WinSxS\amd64_microsoft.windows.common-controls_6595b64144ccf1df_5.82.9200.16384_none_7762d5fd3178b04e\comctl32.dll
0x000007f96ce60000 - 0x000007f96d030000 	C:\Windows\system32\SETUPAPI.dll
0x000007f96acb0000 - 0x000007f96acff000 	C:\Windows\system32\CFGMGR32.dll
0x000007f96aeb0000 - 0x000007f96aed2000 	C:\Windows\system32\DEVOBJ.dll
0x000007f964d20000 - 0x000007f964e7a000 	C:\Windows\system32\propsys.dll
0x000007f959090000 - 0x000007f95922b000 	C:\Windows\system32\NetworkExplorer.dll
0x000007f96a550000 - 0x000007f96a589000 	C:\Windows\System32\shdocvw.dll
0x000007f96ab80000 - 0x000007f96ab95000 	C:\Windows\SYSTEM32\profapi.dll
0x000007f9686f0000 - 0x000007f96887a000 	C:\Windows\SYSTEM32\WindowsCodecs.dll
0x000007f95e800000 - 0x000007f95e835000 	C:\Windows\System32\thumbcache.dll
0x000007f961770000 - 0x000007f961787000 	C:\Windows\SYSTEM32\MPR.dll
0x000007f9636d0000 - 0x000007f9636da000 	C:\Windows\System32\drprov.dll
0x000007f96aab0000 - 0x000007f96aafe000 	C:\Windows\System32\WINSTA.dll
0x000007f962850000 - 0x000007f962863000 	C:\Windows\System32\ntlanman.dll
0x000007f9624f0000 - 0x000007f96250e000 	C:\Windows\System32\davclnt.dll
0x000007f963680000 - 0x000007f96368b000 	C:\Windows\System32\DAVHLPR.dll
0x000007f967060000 - 0x000007f967075000 	C:\Windows\SYSTEM32\wkscli.dll
0x000007f963540000 - 0x000007f963551000 	C:\Windows\SYSTEM32\cscapi.dll
0x000007f969a90000 - 0x000007f969a9e000 	C:\Windows\SYSTEM32\netutils.dll
0x000007f95f370000 - 0x000007f95f3e5000 	C:\Windows\System32\dlnashext.dll
0x000007f960a90000 - 0x000007f960bd4000 	C:\Windows\System32\Windows.Media.Streaming.dll
0x000007f965060000 - 0x000007f96509f000 	C:\Windows\System32\XmlLite.dll
0x000007f96a0f0000 - 0x000007f96a10a000 	C:\Windows\SYSTEM32\CRYPTSP.dll
0x000007f969d70000 - 0x000007f969db9000 	C:\Windows\system32\rsaenh.dll
0x000007f95f360000 - 0x000007f95f370000 	C:\Windows\System32\DevDispItemProvider.dll
0x000007f9606c0000 - 0x000007f9608b8000 	C:\Windows\system32\wpdshext.dll
0x000007f96b280000 - 0x000007f96b420000 	C:\Windows\WinSxS\amd64_microsoft.windows.gdiplus_6595b64144ccf1df_1.1.9200.16384_none_72771d4ecc1c3a4d\gdiplus.dll
0x000007f962550000 - 0x000007f9625eb000 	C:\Windows\System32\PortableDeviceApi.dll
0x000007f96ac50000 - 0x000007f96aca5000 	C:\Windows\system32\WINTRUST.dll
0x000007f96aee0000 - 0x000007f96b0b7000 	C:\Windows\system32\CRYPT32.dll
0x000007f96ac30000 - 0x000007f96ac46000 	C:\Windows\system32\MSASN1.dll
0x000007f961530000 - 0x000007f961566000 	C:\Windows\System32\PortableDeviceTypes.dll
0x000007f95bc70000 - 0x000007f95bca6000 	C:\Windows\System32\EhStorShell.dll
0x000007f961ed0000 - 0x000007f961ef5000 	C:\Windows\System32\EhStorAPI.dll
0x000007f96aa90000 - 0x000007f96aaa1000 	C:\Windows\System32\WTSAPI32.dll
0x000007f961760000 - 0x000007f96176b000 	C:\Windows\SYSTEM32\LINKINFO.dll
0x000007f96a930000 - 0x000007f96a95c000 	C:\Windows\SYSTEM32\SspiCli.dll
0x0000000057700000 - 0x0000000057730000 	C:\Program Files\Java\jdk1.7.0_10\jre\bin\jpeg.dll
0x00000000576c0000 - 0x00000000576f9000 	C:\Program Files\Java\jdk1.7.0_10\jre\bin\kcms.dll
0x0000000057610000 - 0x00000000576b2000 	C:\Program Files\Java\jdk1.7.0_10\jre\bin\mlib_image.dll
0x000007f95f9c0000 - 0x000007f95fb23000 	C:\Windows\SYSTEM32\dbghelp.dll

VM Arguments:
jvm_args: -Dfile.encoding=UTF-8 
java_command: arabicocr.ArabicOCRMain
Launcher Type: SUN_STANDARD

Environment Variables:
PATH=C:\Program Files (x86)\NVIDIA Corporation\PhysX\Common;C:\Windows\system32;C:\Windows;C:\Windows\System32\Wbem;C:\Windows\System32\WindowsPowerShell\v1.0\
USERNAME=Nasution
OS=Windows_NT
PROCESSOR_IDENTIFIER=AMD64 Family 17 Model 3 Stepping 1, AuthenticAMD



---------------  S Y S T E M  ---------------

OS: Windows 8 , 64 bit Build 9200 

CPU:total 2 (2 cores per cpu, 1 threads per core) family 17 model 3 stepping 1, cmov, cx8, fxsr, mmx, sse, sse2, sse3, mmxext, 3dnowpref, tsc, tscinvbit

Memory: 4k page, physical 2881968k(616664k free), swap 5765552k(2448968k free)

vm_info: Java HotSpot(TM) 64-Bit Server VM (23.6-b04) for windows-amd64 JRE (1.7.0_10-b18), built on Nov 28 2012 05:00:40 by "java_re" with unknown MS VC++:1600

time: Wed Jan 16 10:03:52 2013
elapsed time: 91 seconds

